R4DS_solutions | Lei Yan's Cool Website
…
not_cancelled <- flights %>% filter(!is.na(dep_delay), !is.na(arr_delay))

1.

I don’t like this question, so I choose to ignore it.

2.

Come up with another approach that will give you the same output as not_cancelled %>% count(dest) and not_cancelled %>% count(tailnum, wt = distance) (without using count()).

not_cancelled %>%
  group_by(dest) %>%
  summarise(n = n())

## # A tibble: 104 x 2
##    dest      n
##    <chr> <int>
##  1 ABQ     254
##  2 ACK     264
##  3 ALB     418
##  4 ANC       8
##  5 ATL   16837
##  6 AUS    2411
##  7 AVL     261
##  8 BDL     412
##  9 BGR     358
## 10 BHM     269
## # ... with 94 more rows

not_cancelled %>%
  group_by(tailnum) %>%
  summarise(n = sum(distance))

## # A tibble: 4,037 x 2
##    tailnum      n
##    <chr>    <dbl>
##  1 D942DN    3418
##  2 N0EGMQ  239143
##  3 N10156  109664
##  4 N102UW   25722
##  5 N103US   24619
##  6 N104UW   24616
##  7 N10575  139903
##  8 N105UW   23618
##  9 N107US   21677
## 10 N108UW   32070
## # ... with 4,027 more rows
…
## # A tibble: 1 x 3
##   carrier max_dep max_arr
##   <chr>     <dbl>   <dbl>
## 1 HA         1301    1272

Use the hint:

flights %>% 
  group_by(carrier, dest) %>%
  summarise(n())

## # A tibble: 314 x 3
## # Groups:   carrier [?]
##    carrier dest  `n()`
##    <chr>   <chr> <int>
##  1 9E      ATL      59
##  2 9E      AUS       2
##  3 9E      AVL      10
##  4 9E      BGR       1
##  5 9E      BNA     474
##  6 9E      BOS     914
##  7 9E      BTV       2
##  8 9E      BUF     833
##  9 9E      BWI     856
## 10 9E      CAE       3
## # ... with 304 more rows
…
